::1 - - [26/Oct/2018:15:15:29 +0700] "GET /phpmyadmin HTTP/1.1" 301 241
::1 - - [26/Oct/2018:15:15:29 +0700] "GET /phpmyadmin/ HTTP/1.1" 200 7427
::1 - - [26/Oct/2018:15:15:32 +0700] "GET /phpmyadmin/themes/pmahomme/jquery/jquery-ui-1.8.custom.css HTTP/1.1" 200 30846
::1 - - [26/Oct/2018:15:15:32 +0700] "GET /phpmyadmin/js/update-location.js?ts=1324454872 HTTP/1.1" 200 758
::1 - - [26/Oct/2018:15:15:32 +0700] "GET /phpmyadmin/js/cross_framing_protection.js?ts=1324454872 HTTP/1.1" 200 331
::1 - - [26/Oct/2018:15:15:33 +0700] "GET /phpmyadmin/js/jquery/jquery.qtip-1.0.0.min.js?ts=1324454872 HTTP/1.1" 200 38434
::1 - - [26/Oct/2018:15:15:32 +0700] "GET /phpmyadmin/js/functions.js?ts=1324454872 HTTP/1.1" 200 31563
::1 - - [26/Oct/2018:15:15:32 +0700] "GET /phpmyadmin/print.css HTTP/1.1" 200 1064
::1 - - [26/Oct/2018:15:15:32 +0700] "GET /phpmyadmin/js/jquery/jquery-1.4.4.js?ts=1324454872 HTTP/1.1" 200 78268
::1 - - [26/Oct/2018:15:15:33 +0700] "GET /phpmyadmin/js/messages.php?lang=en&db=&token=6ec7d42c33c40f0c19649169056ca73a HTTP/1.1" 200 4934
::1 - - [26/Oct/2018:15:15:32 +0700] "GET /phpmyadmin/phpmyadmin.css.php?server=1&token=6ec7d42c33c40f0c19649169056ca73a&js_frame=right&nocache=3975542799 HTTP/1.1" 200 41672
::1 - - [26/Oct/2018:15:15:33 +0700] "GET /phpmyadmin/themes/pmahomme/img/logo_right.png HTTP/1.1" 200 4921
::1 - - [26/Oct/2018:15:15:33 +0700] "GET /phpmyadmin/themes/pmahomme/img/b_help.png HTTP/1.1" 200 1594
::1 - - [26/Oct/2018:15:15:34 +0700] "GET /phpmyadmin/themes/pmahomme/img/input_bg.gif HTTP/1.1" 200 162
::1 - - [26/Oct/2018:15:15:34 +0700] "GET /phpmyadmin/favicon.ico HTTP/1.1" 200 18902
::1 - - [26/Oct/2018:15:15:39 +0700] "POST /phpmyadmin/index.php HTTP/1.1" 302 -
::1 - - [26/Oct/2018:15:15:39 +0700] "GET /phpmyadmin/index.php?token=6ec7d42c33c40f0c19649169056ca73a HTTP/1.1" 200 2591
::1 - - [26/Oct/2018:15:15:40 +0700] "GET /phpmyadmin/js/common.js?ts=1324454872 HTTP/1.1" 200 5294
::1 - - [26/Oct/2018:15:15:40 +0700] "GET /phpmyadmin/navigation.php?token=6ec7d42c33c40f0c19649169056ca73a HTTP/1.1" 200 4085
::1 - - [26/Oct/2018:15:15:41 +0700] "GET /phpmyadmin/js/jquery/jquery-1.4.4.js HTTP/1.1" 200 78268
::1 - - [26/Oct/2018:15:15:41 +0700] "GET /phpmyadmin/js/functions.js HTTP/1.1" 200 31563
::1 - - [26/Oct/2018:15:15:41 +0700] "GET /phpmyadmin/js/navigation.js HTTP/1.1" 200 2521
::1 - - [26/Oct/2018:15:15:41 +0700] "GET /phpmyadmin/js/jquery/jquery.sprintf.js?ts=1324454872 HTTP/1.1" 200 987
::1 - - [26/Oct/2018:15:15:41 +0700] "GET /phpmyadmin/js/config.js?ts=1324454872 HTTP/1.1" 200 9480
::1 - - [26/Oct/2018:15:15:41 +0700] "GET /phpmyadmin/js/jquery/jquery-ui-1.8.custom.js?ts=1324454872 HTTP/1.1" 200 190765
::1 - - [26/Oct/2018:15:15:40 +0700] "GET /phpmyadmin/main.php?token=6ec7d42c33c40f0c19649169056ca73a HTTP/1.1" 200 37829
::1 - - [26/Oct/2018:15:15:41 +0700] "GET /phpmyadmin/phpmyadmin.css.php?token=6ec7d42c33c40f0c19649169056ca73a&js_frame=left&nocache=5516084539 HTTP/1.1" 200 5861
::1 - - [26/Oct/2018:15:15:41 +0700] "GET /phpmyadmin/themes/pmahomme/img/s_loggoff.png HTTP/1.1" 200 688
::1 - - [26/Oct/2018:15:15:41 +0700] "GET /phpmyadmin/themes/pmahomme/img/b_selboard.png HTTP/1.1" 200 698
::1 - - [26/Oct/2018:15:15:41 +0700] "GET /phpmyadmin/themes/pmahomme/img/logo_left.png HTTP/1.1" 200 4970
::1 - - [26/Oct/2018:15:15:41 +0700] "GET /phpmyadmin/themes/pmahomme/img/b_docs.png HTTP/1.1" 200 786
::1 - - [26/Oct/2018:15:15:41 +0700] "GET /phpmyadmin/themes/pmahomme/img/b_home.png HTTP/1.1" 200 806
::1 - - [26/Oct/2018:15:15:41 +0700] "GET /phpmyadmin/themes/pmahomme/img/b_sqlhelp.png HTTP/1.1" 200 579
::1 - - [26/Oct/2018:15:15:41 +0700] "GET /phpmyadmin/themes/pmahomme/img/b_snewtbl.png HTTP/1.1" 200 733
::1 - - [26/Oct/2018:15:15:41 +0700] "GET /phpmyadmin/themes/pmahomme/img/s_reload.png HTTP/1.1" 200 608
::1 - - [26/Oct/2018:15:15:41 +0700] "GET /phpmyadmin/phpmyadmin.css.php?server=1&token=6ec7d42c33c40f0c19649169056ca73a&js_frame=right&nocache=5516084539 HTTP/1.1" 200 41672
::1 - - [26/Oct/2018:15:15:41 +0700] "GET /phpmyadmin/themes/pmahomme/img/b_sql.png HTTP/1.1" 200 748
::1 - - [26/Oct/2018:15:15:41 +0700] "GET /phpmyadmin/themes/pmahomme/img/s_db.png HTTP/1.1" 200 390
::1 - - [26/Oct/2018:15:15:41 +0700] "GET /phpmyadmin/themes/pmahomme/img/s_rights.png HTTP/1.1" 200 533
::1 - - [26/Oct/2018:15:15:41 +0700] "GET /phpmyadmin/themes/pmahomme/img/s_host.png HTTP/1.1" 200 667
::1 - - [26/Oct/2018:15:15:41 +0700] "GET /phpmyadmin/themes/pmahomme/img/s_process.png HTTP/1.1" 200 512
::1 - - [26/Oct/2018:15:15:41 +0700] "GET /phpmyadmin/themes/pmahomme/img/s_status.png HTTP/1.1" 200 673
::1 - - [26/Oct/2018:15:15:41 +0700] "GET /phpmyadmin/themes/pmahomme/img/b_import.png HTTP/1.1" 200 629
::1 - - [26/Oct/2018:15:15:41 +0700] "GET /phpmyadmin/themes/pmahomme/img/b_export.png HTTP/1.1" 200 641
::1 - - [26/Oct/2018:15:15:41 +0700] "GET /phpmyadmin/themes/pmahomme/img/s_vars.png HTTP/1.1" 200 603
::1 - - [26/Oct/2018:15:15:41 +0700] "GET /phpmyadmin/themes/pmahomme/img/s_asci.png HTTP/1.1" 200 209
::1 - - [26/Oct/2018:15:15:41 +0700] "GET /phpmyadmin/themes/pmahomme/img/s_replication.png HTTP/1.1" 200 447
::1 - - [26/Oct/2018:15:15:41 +0700] "GET /phpmyadmin/themes/pmahomme/img/s_sync.png HTTP/1.1" 200 551
::1 - - [26/Oct/2018:15:15:41 +0700] "GET /phpmyadmin/themes/pmahomme/img/window-new.png HTTP/1.1" 200 583
::1 - - [26/Oct/2018:15:15:41 +0700] "GET /phpmyadmin/themes/pmahomme/img/b_tblops.png HTTP/1.1" 200 610
::1 - - [26/Oct/2018:15:15:41 +0700] "GET /phpmyadmin/themes/pmahomme/img/b_engine.png HTTP/1.1" 200 468
::1 - - [26/Oct/2018:15:15:42 +0700] "GET /phpmyadmin/themes/pmahomme/img/left_nav_bg.png HTTP/1.1" 200 215
::1 - - [26/Oct/2018:15:15:42 +0700] "GET /phpmyadmin/themes/pmahomme/img/tab_bg.png HTTP/1.1" 200 160
::1 - - [26/Oct/2018:15:15:42 +0700] "GET /phpmyadmin/themes/pmahomme/img/s_passwd.png HTTP/1.1" 200 435
::1 - - [26/Oct/2018:15:15:42 +0700] "GET /phpmyadmin/themes/pmahomme/img/s_notice.png HTTP/1.1" 200 666
::1 - - [26/Oct/2018:15:15:42 +0700] "GET /phpmyadmin/themes/pmahomme/img/s_lang.png HTTP/1.1" 200 743
::1 - - [26/Oct/2018:15:15:42 +0700] "GET /phpmyadmin/themes/pmahomme/img/s_theme.png HTTP/1.1" 200 856
::1 - - [26/Oct/2018:15:15:42 +0700] "GET /phpmyadmin/themes/pmahomme/img/b_more.png HTTP/1.1" 200 1002
::1 - - [26/Oct/2018:15:15:43 +0700] "GET /phpmyadmin/themes/pmahomme/img/tab_hover_bg.png HTTP/1.1" 200 1278
::1 - - [26/Oct/2018:15:15:44 +0700] "GET /phpmyadmin/server_databases.php?token=6ec7d42c33c40f0c19649169056ca73a HTTP/1.1" 200 32138
::1 - - [26/Oct/2018:15:15:45 +0700] "GET /phpmyadmin/themes/pmahomme/img/arrow_ltr.png HTTP/1.1" 200 184
::1 - - [26/Oct/2018:15:15:45 +0700] "GET /phpmyadmin/themes/pmahomme/img/s_asc.png HTTP/1.1" 200 201
::1 - - [26/Oct/2018:15:15:45 +0700] "GET /phpmyadmin/themes/pmahomme/img/b_deltbl.png HTTP/1.1" 200 660
::1 - - [26/Oct/2018:15:15:45 +0700] "GET /phpmyadmin/themes/pmahomme/img/b_newdb.png HTTP/1.1" 200 658
::1 - - [26/Oct/2018:15:15:45 +0700] "GET /phpmyadmin/themes/pmahomme/img/b_dbstatistics.png HTTP/1.1" 200 541
::1 - - [26/Oct/2018:15:15:50 +0700] "POST /phpmyadmin/db_create.php HTTP/1.1" 200 2332
::1 - - [26/Oct/2018:15:15:50 +0700] "GET /phpmyadmin/themes/pmahomme/img/s_success.png HTTP/1.1" 200 537
::1 - - [26/Oct/2018:15:15:50 +0700] "GET /phpmyadmin/navigation.php?token=6ec7d42c33c40f0c19649169056ca73a HTTP/1.1" 200 4053
::1 - - [26/Oct/2018:15:15:51 +0700] "GET /phpmyadmin/js/jquery/jquery-1.4.4.js HTTP/1.1" 304 -
::1 - - [26/Oct/2018:15:15:51 +0700] "GET /phpmyadmin/js/navigation.js HTTP/1.1" 304 -
::1 - - [26/Oct/2018:15:15:51 +0700] "GET /phpmyadmin/js/functions.js HTTP/1.1" 304 -
::1 - - [26/Oct/2018:15:15:51 +0700] "GET /phpmyadmin/phpmyadmin.css.php?token=6ec7d42c33c40f0c19649169056ca73a&js_frame=left&nocache=5516084539 HTTP/1.1" 200 5861
::1 - - [26/Oct/2018:15:15:51 +0700] "GET /phpmyadmin/themes/pmahomme/img/logo_left.png HTTP/1.1" 304 -
::1 - - [26/Oct/2018:15:15:51 +0700] "GET /phpmyadmin/themes/pmahomme/img/left_nav_bg.png HTTP/1.1" 304 -
::1 - - [26/Oct/2018:15:15:51 +0700] "GET /phpmyadmin/themes/pmahomme/img/b_home.png HTTP/1.1" 304 -
::1 - - [26/Oct/2018:15:15:51 +0700] "GET /phpmyadmin/themes/pmahomme/img/s_loggoff.png HTTP/1.1" 304 -
::1 - - [26/Oct/2018:15:15:51 +0700] "GET /phpmyadmin/themes/pmahomme/img/b_selboard.png HTTP/1.1" 304 -
::1 - - [26/Oct/2018:15:15:51 +0700] "GET /phpmyadmin/themes/pmahomme/img/b_docs.png HTTP/1.1" 304 -
::1 - - [26/Oct/2018:15:15:51 +0700] "GET /phpmyadmin/themes/pmahomme/img/b_sqlhelp.png HTTP/1.1" 304 -
::1 - - [26/Oct/2018:15:15:51 +0700] "GET /phpmyadmin/themes/pmahomme/img/s_reload.png HTTP/1.1" 304 -
::1 - - [26/Oct/2018:15:15:51 +0700] "GET /phpmyadmin/themes/pmahomme/img/database.png HTTP/1.1" 200 390
::1 - - [26/Oct/2018:15:15:52 +0700] "GET /phpmyadmin/server_import.php?token=6ec7d42c33c40f0c19649169056ca73a HTTP/1.1" 200 17869
::1 - - [26/Oct/2018:15:15:53 +0700] "GET /phpmyadmin/js/import.js?ts=1324454872 HTTP/1.1" 200 1383
::1 - - [26/Oct/2018:15:15:53 +0700] "GET /phpmyadmin/themes/pmahomme/img/ajax_clock_small.gif HTTP/1.1" 200 1849
::1 - - [26/Oct/2018:15:16:00 +0700] "GET /phpmyadmin/index.php?db=dilco&token=6ec7d42c33c40f0c19649169056ca73a HTTP/1.1" 200 2630
::1 - - [26/Oct/2018:15:16:00 +0700] "GET /phpmyadmin/navigation.php?token=6ec7d42c33c40f0c19649169056ca73a&db=dilco HTTP/1.1" 200 4650
::1 - - [26/Oct/2018:15:16:00 +0700] "GET /phpmyadmin/db_structure.php?token=6ec7d42c33c40f0c19649169056ca73a&db=dilco HTTP/1.1" 200 8211
::1 - - [26/Oct/2018:15:16:02 +0700] "GET /phpmyadmin/js/messages.php?lang=en&db=dilco&token=6ec7d42c33c40f0c19649169056ca73a HTTP/1.1" 200 4939
::1 - - [26/Oct/2018:15:16:02 +0700] "GET /phpmyadmin/js/db_structure.js?ts=1324454872 HTTP/1.1" 200 3178
::1 - - [26/Oct/2018:15:16:02 +0700] "GET /phpmyadmin/themes/pmahomme/img/b_newtbl.png HTTP/1.1" 200 325
::1 - - [26/Oct/2018:15:16:02 +0700] "GET /phpmyadmin/themes/pmahomme/img/b_props.png HTTP/1.1" 200 663
::1 - - [26/Oct/2018:15:16:02 +0700] "GET /phpmyadmin/themes/pmahomme/img/item_ltr.png HTTP/1.1" 200 162
::1 - - [26/Oct/2018:15:16:02 +0700] "GET /phpmyadmin/themes/pmahomme/img/b_search.png HTTP/1.1" 200 615
::1 - - [26/Oct/2018:15:16:02 +0700] "GET /phpmyadmin/themes/pmahomme/img/error.ico HTTP/1.1" 200 5430
::1 - - [26/Oct/2018:15:16:03 +0700] "GET /phpmyadmin/db_import.php?db=dilco&server=1&token=6ec7d42c33c40f0c19649169056ca73a HTTP/1.1" 200 17686
::1 - - [26/Oct/2018:15:16:27 +0700] "POST /phpmyadmin/import.php HTTP/1.1" 200 48393
::1 - - [26/Oct/2018:15:16:28 +0700] "GET /phpmyadmin/navigation.php?db=dilco&token=6ec7d42c33c40f0c19649169056ca73a HTTP/1.1" 200 7501
::1 - - [26/Oct/2018:15:16:29 +0700] "GET /phpmyadmin/themes/pmahomme/img/b_sbrowse.png HTTP/1.1" 200 566
::1 - - [26/Oct/2018:15:16:39 +0700] "GET / HTTP/1.1" 200 9897
::1 - - [26/Oct/2018:15:16:39 +0700] "GET /assets/css/custom.css HTTP/1.1" 200 16215
::1 - - [26/Oct/2018:15:16:40 +0700] "GET /assets/css/bootstrap.min.css HTTP/1.1" 200 138009
::1 - - [26/Oct/2018:15:16:40 +0700] "GET /assets/css/font-awesome.min.css HTTP/1.1" 200 31004
::1 - - [26/Oct/2018:15:16:40 +0700] "GET /assets/js/bootstrap.min.js HTTP/1.1" 200 50737
::1 - - [26/Oct/2018:15:16:40 +0700] "GET /assets/js/jquery-3.3.1.min.js HTTP/1.1" 200 86929
::1 - - [26/Oct/2018:15:16:40 +0700] "GET /assets/images/b.jpeg HTTP/1.1" 200 122708
::1 - - [26/Oct/2018:15:16:40 +0700] "GET /assets/images/smkbaabulkamil.png HTTP/1.1" 200 134430
::1 - - [26/Oct/2018:15:16:40 +0700] "GET /assets/images/unpad.png HTTP/1.1" 200 502440
::1 - - [26/Oct/2018:15:16:40 +0700] "GET /assets/images/1.jpeg HTTP/1.1" 200 257815
::1 - - [26/Oct/2018:15:16:40 +0700] "GET /assets/images/4.jpeg HTTP/1.1" 200 249598
::1 - - [26/Oct/2018:15:16:40 +0700] "GET /assets/images/3.jpeg HTTP/1.1" 200 254149
::1 - - [26/Oct/2018:15:16:40 +0700] "GET /assets/images/2.jpeg HTTP/1.1" 200 272928
::1 - - [26/Oct/2018:15:16:40 +0700] "GET /assets/images/a.jpeg HTTP/1.1" 200 375902
::1 - - [26/Oct/2018:15:16:40 +0700] "GET /assets/images/c.jpeg HTTP/1.1" 200 347674
::1 - - [26/Oct/2018:15:16:40 +0700] "GET /assets/images/6.jpeg HTTP/1.1" 200 247947
::1 - - [26/Oct/2018:15:16:40 +0700] "GET /assets/images/5.jpeg HTTP/1.1" 200 224429
::1 - - [26/Oct/2018:15:16:41 +0700] "GET /assets/fonts/fontawesome-webfont.woff2?v=4.7.0 HTTP/1.1" 200 77160
::1 - - [26/Oct/2018:15:16:41 +0700] "GET /assets/fonts/Cashewed-Apple.ttf HTTP/1.1" 200 97332
::1 - - [26/Oct/2018:15:16:42 +0700] "GET /favicon.ico HTTP/1.1" 404 209
::1 - - [26/Oct/2018:15:16:42 +0700] "GET /favicon.ico HTTP/1.1" 404 209
